<svg xmlns="http://www.w3.org/2000/svg" width="426" height="370" viewBox="0 0 426 370">
    <path fill="#000" fill-rule="nonzero" d="M425.176 61.337L319.5.221a1.647 1.647 0 0 0-1.649 0L213 60.864 108.149.22a1.647 1.647 0 0 0-1.649 0L.824 61.337c-.51.295-.824.841-.824 1.432V307.23c0 .59.314 1.137.824 1.432L106.5 369.779c.51.295 1.139.295 1.649 0L213 309.136l104.851 60.643c.51.295 1.139.295 1.649 0l105.676-61.116c.51-.295.824-.841.824-1.432V62.77c0-.59-.314-1.137-.824-1.432zm-321.15 62.547L3.299 182.137V65.632l100.729 58.252zM213 64.674l102.378 59.21L213 183.095l-102.378-59.21L213 64.673zm-105.676 61.115L209.702 185l-102.378 59.21L4.947 185l102.377-59.21zm1.65 121.274l102.377-59.21v118.431l-102.378 59.211V247.063zm105.675-59.21l102.378 59.21v118.432l-102.378-59.21V187.851zM318.676 244.2L216.298 185l102.378-59.21L421.03 185l-102.355 59.2zm3.297-120.327l100.73-58.252v116.516l-100.73-58.264zM318.676 3.547L421.03 62.769l-102.377 59.21-102.356-59.21L318.676 3.547zm-211.352 0l102.378 59.222-102.378 59.21L4.947 62.77 107.324 3.547zM3.298 187.863l102.378 59.21v118.422L3.298 306.285V187.862zm317.026 177.632V247.074l102.378-59.21v118.42l-102.378 59.211z" opacity=".04"/>
</svg>
