<svg width="34" height="17" viewBox="0 0 34 17" fill="none" xmlns="http://www.w3.org/2000/svg">
<path fill-rule="evenodd" clip-rule="evenodd" d="M0.376953 3.39714V5.57486H2.71721V16.9912H4.76624V3.39714H0.376953ZM7.96478 16.9912H5.83357V2.26584H2.71721V0.0014267H7.96478V16.9912ZM18.6345 11.2207C18.4817 11.2207 17.6758 11.2155 17.527 11.2019C17.275 11.1793 16.9092 11.1391 16.6744 11.0819C16.4092 11.0065 16.1605 10.9071 16.0481 10.8417C15.2612 10.3893 14.7253 9.50604 14.7253 8.48808C14.7253 7.00708 15.8547 5.80689 17.2499 5.80689C18.6153 5.80689 19.7254 6.96033 19.7698 8.40134H21.804C21.7616 5.76749 19.7402 3.64611 17.2499 3.64611C14.731 3.64611 12.6889 5.81359 12.6889 8.48808C12.6889 10.3741 13.7065 12.0033 15.1894 12.8012C15.4174 12.9426 15.8464 13.0913 15.969 13.1254C16.3873 13.242 16.9494 13.3222 17.4057 13.3572C17.5749 13.3719 18.3998 13.3788 18.5743 13.3803V13.3834H33.1934V11.2207H18.6345ZM17.4057 14.7383C16.7718 14.6939 16.0401 14.5756 15.4633 14.398C15.3553 14.3645 14.9079 14.1903 14.7943 14.1348C12.7863 13.147 11.3873 10.9898 11.3873 8.48808C11.3873 5.0557 14.0161 2.26102 17.2499 2.26102C20.454 2.26102 23.065 5.00879 23.1093 8.40134H25.227C25.1832 3.76882 21.6223 0.0139713 17.2499 0.0139713C12.8502 0.0139713 9.27011 3.81552 9.27011 8.48808C9.27011 11.7097 10.9753 14.5117 13.474 15.9431C13.9246 16.1969 14.5721 16.4576 14.7919 16.5291C15.5034 16.7546 16.3772 16.9033 17.1556 16.9667C17.4195 16.9881 18.3413 16.9986 18.6104 17.0002H33.1948V14.7599H18.6345C18.4412 14.7599 17.5954 14.7519 17.4057 14.7383Z" fill="#3569EF"/>
</svg>
