<svg width="16" height="16" viewBox="0 0 16 16" fill="none" xmlns="http://www.w3.org/2000/svg">
<path opacity="0.8" d="M2.5 2.53125C4.02083 1.01042 5.85417 0.25 8 0.25C10.1458 0.25 11.9688 1.01042 13.4688 2.53125C14.9896 4.03125 15.75 5.85417 15.75 8C15.75 10.1458 14.9896 11.9792 13.4688 13.5C11.9688 15 10.1458 15.75 8 15.75C5.85417 15.75 4.02083 15 2.5 13.5C1 11.9792 0.25 10.1458 0.25 8C0.25 5.85417 1 4.03125 2.5 2.53125ZM8 14.75C9.875 14.75 11.4688 14.0938 12.7812 12.7812C14.0938 11.4479 14.75 9.85417 14.75 8C14.75 6.125 14.0833 4.53125 12.75 3.21875C11.4375 1.90625 9.85417 1.25 8 1.25C6.125 1.25 4.53125 1.91667 3.21875 3.25C1.90625 4.5625 1.25 6.14583 1.25 8C1.25 9.875 1.90625 11.4688 3.21875 12.7812C4.55208 14.0938 6.14583 14.75 8 14.75ZM12.4375 6.15625L6.78125 11.75C6.61458 11.9375 6.4375 11.9375 6.25 11.75L3.5625 9.03125C3.39583 8.86458 3.39583 8.6875 3.5625 8.5L3.84375 8.25C4.01042 8.08333 4.1875 8.08333 4.375 8.25L6.53125 10.4375L11.625 5.34375C11.8125 5.17708 11.9896 5.1875 12.1562 5.375L12.4375 5.625C12.6042 5.8125 12.6042 5.98958 12.4375 6.15625Z" fill="#ffffff"/>
</svg>
