<svg width="42" height="32" viewBox="0 0 42 32" fill="none" xmlns="http://www.w3.org/2000/svg">
<path fill-rule="evenodd" clip-rule="evenodd" d="M32.7029 0L24.2814 12.7346V32H41.125V15.4555H33.6871V12.7346L42 0H32.7029ZM8.42155 0L0 12.7346V32H16.8435V15.4555H9.4062V12.7346L17.7186 0H8.42155Z" fill="white"/>
</svg>
