<svg xmlns="http://www.w3.org/2000/svg" width="100" height="100" viewBox="0 0 100 100">
    <g fill="#ECF3FF" fill-rule="nonzero">
        <path d="M98 0H2a2 2 0 0 0-2 2v76a2 2 0 0 0 2 2h21.046l-6.904 17.258a2 2 0 1 0 3.716 1.484L27.354 80H48v18a2 2 0 1 0 4 0V80h20.646l7.496 18.742a2.001 2.001 0 0 0 3.716-1.484L76.956 80H98c1.106 0 2-.894 2-2V2a2 2 0 0 0-2-2zm-2 4v8H4V4h92zM74.038 76c-.002 0-.002 0 0 0H4V16h92v60H74.038z"/>
        <path d="M50 24c-12.13 0-22 9.87-22 22s9.87 22 22 22 22-9.87 22-22-9.87-22-22-22zM32 46c0-9.924 8.076-18 18-18 9.25 0 16.882 7.014 17.882 16H50a2 2 0 0 0-2 2v17.882c-8.986-1-16-8.632-16-17.882zm20 17.882V48h15.882C66.958 56.33 60.33 62.958 52 63.882z"/>
    </g>
</svg>
