<svg xmlns="http://www.w3.org/2000/svg" width="50" height="50" fill="none" viewBox="0 0 50 50">
  <g clip-path="url(#clip0)">
    <path fill="#E50071" d="M9.61 32.214l-.657-.655-.652.653h-.002L.271 40.239a.926.926 0 101.31 1.31l6.446-6.446v13.162a.926.926 0 001.851 0V35.104l6.45 6.445a.927.927 0 001.311-1.309l-8.03-8.026zM25.656 16.84s0-.002 0 0L25 16.184l-.654.656-.001.002-8.027 8.027a.925.925 0 101.31 1.308l6.446-6.45v28.538a.927.927 0 001.852 0V19.728l6.45 6.447a.931.931 0 001.311 0 .928.928 0 000-1.309l-8.031-8.026zM49.73 9.49l-8.027-8.026-.002-.001-.655-.654-.653.653h-.002l-8.028 8.026a.926.926 0 001.31 1.31l6.447-6.446v43.913a.926.926 0 001.852 0V4.352l6.449 6.446a.929.929 0 001.31 0 .928.928 0 000-1.308z"/>
  </g>
  <defs>
    <clipPath id="clip0">
      <path fill="#fff" d="M0 0h50v50H0z"/>
    </clipPath>
  </defs>
</svg>
