<svg xmlns="http://www.w3.org/2000/svg" width="47" height="47" fill="none" viewBox="0 0 47 47">
  <path fill="#E50071" d="M46.368 18.8l-12.5-4.688a.789.789 0 00-.547 0l-3.633 1.362V7.812h5.468a.781.781 0 00.782-.78V3.905A3.91 3.91 0 0032.03 0H10.156A3.91 3.91 0 006.25 3.906v35.157H.781a.781.781 0 00-.781.78v3.126a3.91 3.91 0 003.906 3.906h21.875a3.901 3.901 0 003.885-3.7l3.368 3.463a.782.782 0 001.12 0l9.289-9.556a11.359 11.359 0 003.432-8.176v-9.375a.781.781 0 00-.507-.732zM34.375 3.905V6.25h-4.688V3.906a2.344 2.344 0 114.688 0zM1.562 42.97v-2.344H6.25v2.344a2.343 2.343 0 11-4.688 0zm26.563 0a2.343 2.343 0 01-2.344 2.343H7.011a3.866 3.866 0 00.801-2.343V3.906a2.344 2.344 0 012.344-2.344h18.77a3.865 3.865 0 00-.801 2.344V16.06L20.82 18.8a.782.782 0 00-.508.731v9.375a11.358 11.358 0 003.429 8.172l4.384 4.511v1.38zm17.188-14.063a9.835 9.835 0 01-2.983 7.08l-8.736 8.987-8.737-8.985-.008-.008a9.827 9.827 0 01-2.974-7.074v-8.833l11.719-4.395 11.718 4.395v8.833z"/>
  <path fill="#E50071" d="M33.293 17.248l-9.375 3.906a.781.781 0 00-.48.721v6.92a8.537 8.537 0 002.517 6.077l7.086 7.087a.782.782 0 001.105 0l7.087-7.087a8.535 8.535 0 002.517-6.077v-6.92a.781.781 0 00-.48-.721l-9.375-3.906a.783.783 0 00-.602 0zm8.895 5.148v6.399a6.986 6.986 0 01-2.06 4.972l-6.534 6.535-6.535-6.535A6.988 6.988 0 0125 28.795v-6.399l8.594-3.581 8.593 3.581zM9.375 6.25H12.5v1.563H9.375V6.25zM14.063 6.25h12.5v1.563h-12.5V6.25zM9.375 10.938h12.5V12.5h-12.5v-1.563zM23.438 10.938h3.125V12.5h-3.125v-1.563zM9.375 15.625H12.5v1.563H9.375v-1.563zM14.063 15.625h7.812v1.563h-7.813v-1.563zM9.375 20.313h9.375v1.562H9.375v-1.563zM9.375 25h9.375v1.563H9.375V25zM9.375 29.688h9.375v1.562H9.375v-1.563zM9.375 34.375h9.375v1.563H9.375v-1.563zM9.375 39.063h10.938v1.562H9.374v-1.563zM21.875 39.063h1.563v1.562h-1.563v-1.563z"/>
  <path fill="#E50071" d="M31.384 28.717l-1.105 1.105 2.762 2.762a.781.781 0 001.105 0l6.629-6.63-1.105-1.104-6.076 6.077-2.21-2.21z"/>
</svg>
