<svg xmlns="http://www.w3.org/2000/svg" width="60" height="60" viewBox="0 0 60 60">
    <path fill="#D8E6FF" fill-rule="evenodd" d="M2.478.119c.787 0 1.495.317 2.124.95l53.93 54.297c.708.792.983 1.822.826 3.09-.473.95-1.377 1.465-2.715 1.544H3.776c-.314 0-.708-.04-1.18-.119C.866 59.327 0 58.1 0 56.198V2.97C.157 1.386.983.436 2.478.12zm1.298 56.079H53.93L3.776 5.822v12.356h3.776c1.102.08 1.731.713 1.889 1.901-.08 1.11-.708 1.743-1.889 1.901H3.776v3.802h1.888c1.102.08 1.731.713 1.888 1.901-.078 1.11-.708 1.743-1.888 1.901H3.776v3.802h3.776c1.102.08 1.731.713 1.889 1.901-.08 1.109-.708 1.743-1.889 1.901H3.776v3.802h1.888c1.102.08 1.731.713 1.888 1.901-.078 1.109-.708 1.743-1.888 1.901H3.776v3.802h3.776c1.102.08 1.731.713 1.889 1.901-.08 1.109-.708 1.743-1.889 1.901H3.776v3.802zm11.329-3.802c-.315 0-.708-.04-1.18-.119-1.731-.554-2.596-1.782-2.596-3.683V25.782c.157-1.584.983-2.534 2.478-2.851.787 0 1.495.317 2.124.95l23.72 23.881c.707.792.983 1.822.825 3.09-.472.95-1.376 1.465-2.714 1.544H15.105zm0-23.881v20.08h19.943l-19.943-20.08zm37.29 14.733c-1.259-.238-2.635-.99-4.13-2.258L16.993 9.505a1.86 1.86 0 0 0-.354-.475c-1.18-1.822-1.062-3.485.354-4.99l2.95-2.97C20.651.435 21.556.08 22.657 0c1.023 0 1.928.356 2.715 1.07l31.271 31.484c1.26 1.426 2.006 2.812 2.242 4.159l1.063 3.92c.157.951-.04 1.822-.59 2.615-.551.712-1.299 1.108-2.243 1.188a2.47 2.47 0 0 1-.413-.06 2.47 2.47 0 0 0-.413-.06l-3.894-1.068zm2.832-5.703c-.236-.95-.668-1.703-1.298-2.258L28.322 9.505l-2.95 2.97 25.607 25.782c.55.634 1.298 1.07 2.242 1.307l2.714.713-.708-2.732zM22.657 3.802l-2.95 2.97 2.95 2.97 2.95-2.97-2.95-2.97z" opacity=".5"/>
</svg>
